-- Merging decision tree log ---
manifest
ADDED from /Users/appshouse/Desktop/fatema/android-takaful/lbFileChooser/src/main/AndroidManifest.xml:18:1-28:12
INJECTED from /Users/appshouse/Desktop/fatema/android-takaful/lbFileChooser/src/main/AndroidManifest.xml:18:1-28:12
INJECTED from /Users/appshouse/Desktop/fatema/android-takaful/lbFileChooser/src/main/AndroidManifest.xml:18:1-28:12
INJECTED from /Users/appshouse/Desktop/fatema/android-takaful/lbFileChooser/src/main/AndroidManifest.xml:18:1-28:12
INJECTED from /Users/appshouse/Desktop/fatema/android-takaful/lbFileChooser/src/main/AndroidManifest.xml:18:1-28:12
INJECTED from /Users/appshouse/Desktop/fatema/android-takaful/lbFileChooser/src/main/AndroidManifest.xml:18:1-28:12
INJECTED from /Users/appshouse/Desktop/fatema/android-takaful/lbFileChooser/src/main/AndroidManifest.xml:18:1-28:12
	package
		ADDED from /Users/appshouse/Desktop/fatema/android-takaful/lbFileChooser/src/main/AndroidManifest.xml:19:11-50
		INJECTED from /Users/appshouse/Desktop/fatema/android-takaful/lbFileChooser/src/main/AndroidManifest.xml
		INJECTED from /Users/appshouse/Desktop/fatema/android-takaful/lbFileChooser/src/main/AndroidManifest.xml
	android:versionName
		INJECTED from /Users/appshouse/Desktop/fatema/android-takaful/lbFileChooser/src/main/AndroidManifest.xml
		ADDED from /Users/appshouse/Desktop/fatema/android-takaful/lbFileChooser/src/main/AndroidManifest.xml:18:1-28:12
		INJECTED from /Users/appshouse/Desktop/fatema/android-takaful/lbFileChooser/src/main/AndroidManifest.xml
	android:versionCode
		INJECTED from /Users/appshouse/Desktop/fatema/android-takaful/lbFileChooser/src/main/AndroidManifest.xml
		ADDED from /Users/appshouse/Desktop/fatema/android-takaful/lbFileChooser/src/main/AndroidManifest.xml:18:1-28:12
		INJECTED from /Users/appshouse/Desktop/fatema/android-takaful/lbFileChooser/src/main/AndroidManifest.xml
	xmlns:android
		ADDED from /Users/appshouse/Desktop/fatema/android-takaful/lbFileChooser/src/main/AndroidManifest.xml:18:11-69
application
ADDED from /Users/appshouse/Desktop/fatema/android-takaful/lbFileChooser/src/main/AndroidManifest.xml:21:5-26:19
	android:label
		ADDED from /Users/appshouse/Desktop/fatema/android-takaful/lbFileChooser/src/main/AndroidManifest.xml:23:9-41
	android:allowBackup
		ADDED from /Users/appshouse/Desktop/fatema/android-takaful/lbFileChooser/src/main/AndroidManifest.xml:22:9-35
uses-sdk
INJECTED from /Users/appshouse/Desktop/fatema/android-takaful/lbFileChooser/src/main/AndroidManifest.xml reason: use-sdk injection requested
INJECTED from /Users/appshouse/Desktop/fatema/android-takaful/lbFileChooser/src/main/AndroidManifest.xml
INJECTED from /Users/appshouse/Desktop/fatema/android-takaful/lbFileChooser/src/main/AndroidManifest.xml
INJECTED from /Users/appshouse/Desktop/fatema/android-takaful/lbFileChooser/src/main/AndroidManifest.xml
INJECTED from /Users/appshouse/Desktop/fatema/android-takaful/lbFileChooser/src/main/AndroidManifest.xml
	android:targetSdkVersion
		INJECTED from /Users/appshouse/Desktop/fatema/android-takaful/lbFileChooser/src/main/AndroidManifest.xml
		ADDED from /Users/appshouse/Desktop/fatema/android-takaful/lbFileChooser/src/main/AndroidManifest.xml
		INJECTED from /Users/appshouse/Desktop/fatema/android-takaful/lbFileChooser/src/main/AndroidManifest.xml
	android:minSdkVersion
		INJECTED from /Users/appshouse/Desktop/fatema/android-takaful/lbFileChooser/src/main/AndroidManifest.xml
		ADDED from /Users/appshouse/Desktop/fatema/android-takaful/lbFileChooser/src/main/AndroidManifest.xml
		INJECTED from /Users/appshouse/Desktop/fatema/android-takaful/lbFileChooser/src/main/AndroidManifest.xml
